package com.gmail.www;

public class Point {
    private double x;
    private double y;

    public Point(double x, double y) {
        this.x = x;
        this.y = y;
    }

    public Point() {
    }

    public double getX() {
        return x;
    }

    public void setX(double x) {
        this.x = x;
    }

    public double getY() {
        return y;
    }

    public void setY(double y) {
        this.y = y;
    }

    @Override
    public String toString() {
        return "Point{" + "x=" + x + ", y=" + y + '}';
    }

}

